Integrin-alpha1beta1	ITGA1	ITGB1
Integrin-alpha2beta1	ITGA2	ITGB1
Integrin-alpha3beta1	ITGA3	ITGB1
Integrin-alpha4beta1	ITGA4	ITGB1
Integrin-alpha5beta1	ITGA5	ITGB1
Integrin-alpha5beta2	ITGA5	ITGB2
Integrin-alpha5beta3	ITGA5	ITGB3
Integrin-alpha6beta4	ITGA6	ITGB4
Integrin-alphavbeta3	ITGAV	ITGB3
Integrin-alphavbeta5	ITGAV	ITGB5
